<?xml version="1.0" encoding="UTF-8" standalone="no"?>
<svg width="94px" height="69px" viewBox="0 0 94 69" version="1.1" xmlns="http://www.w3.org/2000/svg" xmlns:xlink="http://www.w3.org/1999/xlink">
    <!-- Generator: Sketch 42 (36781) - http://www.bohemiancoding.com/sketch -->
    <title>Page 1</title>
    <desc>Created with Sketch.</desc>
    <defs>
        <polygon id="path-1" points="5.14995317 3 0.907339784 3 0.907339784 0.531347687 5.14995317 0.531347687 5.14995317 3"></polygon>
    </defs>
    <g id="Page-1" stroke="none" stroke-width="1" fill="none" fill-rule="evenodd">
        <g>
            <g id="Group-3" transform="translate(0.000000, 65.226600)">
                <mask id="mask-2" fill="white">
                    <use xlink:href="#path-1"></use>
                </mask>
                <g id="Clip-2"></g>
                <path d="M5.1006,2.4141 L4.1846,0.7381 C4.0736,0.5331 3.8136,0.4691 3.6186,0.5981 L1.0856,2.2731 C0.7576,2.4911 0.9126,3.0001 1.3036,3.0001 L4.7526,3.0001 C5.0536,3.0001 5.2456,2.6781 5.1006,2.4141" id="Fill-1" fill="#020203" mask="url(#mask-2)"></path>
            </g>
            <path d="M72.2393,67.1514 L70.8353,65.4354 C70.6753,65.2414 70.3773,65.2424 70.2193,65.4394 L68.8453,67.1534 C68.6373,67.4134 68.8233,67.7974 69.1553,67.7974 L71.9333,67.7974 C72.2673,67.7974 72.4523,67.4094 72.2393,67.1514" id="Fill-4" fill="#020203"></path>
            <path d="M93.6152,1.4493 L86.4012,0.7453 C86.2042,0.7263 86.1042,0.9773 86.2612,1.0993 L92.5072,5.9373 C92.6202,6.0253 92.7882,5.9663 92.8212,5.8253 L93.2832,3.8533 L93.3972,3.3613 L93.7892,1.6913 C93.8162,1.5743 93.7342,1.4613 93.6152,1.4493" id="Fill-6" fill="#020203"></path>
            <path d="M91.6328,6.6953 L85.0658,1.2383 C84.9458,1.1383 84.7638,1.2103 84.7428,1.3643 L83.7298,9.1043 C83.7138,9.2223 83.8058,9.3283 83.9268,9.3283 L88.5838,9.3283 C88.6278,9.3283 88.6728,9.3133 88.7058,9.2863 L91.6278,7.0033 C91.7278,6.9253 91.7308,6.7763 91.6328,6.6953" id="Fill-8" fill="#020203"></path>
            <path d="M68.2021,6.334 L65.6701,14.091 C65.6041,14.29 65.6491,14.509 65.7861,14.667 L75.8821,26.216 C76.1821,26.561 76.7441,26.45 76.8911,26.017 L82.2841,10.209 C82.2981,10.173 82.3061,10.133 82.3111,10.095 L83.3671,2.037 C83.3831,1.905 83.3561,1.772 83.2891,1.656 L82.7261,0.706 C82.6181,0.524 82.4231,0.415 82.2151,0.415 L79.0381,0.415 C78.7981,0.415 78.5791,0.561 78.4871,0.783 L73.1761,13.787 C72.9721,14.289 72.2571,14.276 72.0681,13.768 L69.3261,6.313 C69.1311,5.784 68.3781,5.798 68.2021,6.334" id="Fill-10" fill="#020203"></path>
            <path d="M76.498,0.3623 L71.02,0.0013 C70.788,-0.0137 70.568,0.1093 70.458,0.3163 L69.25,2.5893 C69.173,2.7353 69.159,2.9093 69.216,3.0663 L72.147,11.3403 C72.333,11.8613 72.935,11.8703 73.132,11.3523 L77.016,1.1673 C77.157,0.7933 76.896,0.3873 76.498,0.3623" id="Fill-12" fill="#020203"></path>
            <path d="M69.5693,64.3184 L75.6843,28.5574 C75.7153,28.3814 75.6653,28.2004 75.5483,28.0674 L65.1003,16.1134 C64.8963,15.8804 64.5483,15.8424 64.2983,16.0264 L61.8953,17.8064 C61.7253,17.9334 61.6333,18.1414 61.6583,18.3514 L67.0983,65.9724 C67.1593,66.5044 67.8353,66.6914 68.1603,66.2674 L69.4543,64.5804 C69.5123,64.5034 69.5513,64.4144 69.5693,64.3184" id="Fill-14" fill="#020203"></path>
            <path d="M25.418,23.8916 L36.184,36.7726 C36.268,36.8736 36.384,36.9446 36.513,36.9716 L61.895,42.5446 C62.293,42.6316 62.66,42.3006 62.612,41.8956 L59.943,19.0426 C59.905,18.7126 59.605,18.4786 59.276,18.5216 L25.798,22.9206 C25.332,22.9826 25.118,23.5326 25.418,23.8916" id="Fill-16" fill="#020203"></path>
            <path d="M34.4766,37.1641 L23.9386,24.5581 C23.6726,24.2381 23.1696,24.2841 22.9656,24.6451 L18.5766,32.4211 C18.4606,32.6261 18.4766,32.8791 18.6166,33.0671 L21.6556,37.1671 C21.6786,37.1971 21.7026,37.2261 21.7326,37.2521 L26.2186,41.3521 C26.3946,41.5131 26.6496,41.5531 26.8656,41.4541 L34.2666,38.0871 C34.6226,37.9251 34.7276,37.4671 34.4766,37.1641" id="Fill-18" fill="#020203"></path>
            <path d="M17.1123,34.9981 L15.4173,42.4371 C15.4053,42.4891 15.3873,42.5381 15.3623,42.5851 L8.2683,55.9251 C7.9753,56.4771 8.6223,57.0501 9.1353,56.6891 L19.8293,49.1911 C19.8793,49.1571 19.9233,49.1141 19.9613,49.0641 L24.7093,42.7851 C24.8943,42.5401 24.8613,42.1921 24.6333,41.9861 L20.6473,38.3831 C20.6113,38.3521 20.5813,38.3151 20.5533,38.2761 L18.1843,34.7951 C17.8913,34.3661 17.2283,34.4921 17.1123,34.9981" id="Fill-20" fill="#020203"></path>
            <path d="M3.2373,64.5616 L5.9283,57.7266 C5.9353,57.7076 5.9443,57.6886 5.9543,57.6686 L12.1283,45.8566 C12.4443,45.2496 11.6523,44.6756 11.1743,45.1666 L3.1173,53.4476 C3.0433,53.5226 2.9913,53.6166 2.9663,53.7186 L0.0193,65.5826 C-0.1127,66.1086 0.4713,66.5196 0.9243,66.2206 L3.0113,64.8396 C3.1143,64.7716 3.1923,64.6746 3.2373,64.5616" id="Fill-22" fill="#020203"></path>
            <path d="M13.1484,33.6036 L16.5374,32.7566 C16.6424,32.7306 16.7334,32.6626 16.7864,32.5686 L20.2244,26.4756 C20.4524,26.0736 19.9224,25.6736 19.5964,26.0036 L15.7574,29.9176 C15.6954,29.9816 15.6154,30.0226 15.5284,30.0336 L12.2844,30.4726 C12.1764,30.4876 12.0694,30.4576 11.9854,30.3916 L10.7504,29.4176 C10.3874,29.1316 9.9144,29.5896 10.1844,29.9616 L12.7314,33.4536 C12.8274,33.5826 12.9914,33.6426 13.1484,33.6036" id="Fill-24" fill="#020203"></path>
            <path d="M10.166,27.8389 L12.027,29.3079 C12.318,29.5379 12.737,29.2769 12.66,28.9129 L12.093,26.2519 C12.029,25.9509 11.663,25.8349 11.437,26.0429 L10.143,27.2359 C9.964,27.4019 9.975,27.6879 10.166,27.8389" id="Fill-26" fill="#020203"></path>
        </g>
    </g>
</svg>