<?xml version="1.0" encoding="UTF-8" standalone="no"?>
<svg width="126px" height="21px" viewBox="0 0 126 21" version="1.1" xmlns="http://www.w3.org/2000/svg" xmlns:xlink="http://www.w3.org/1999/xlink">
    <!-- Generator: Sketch 42 (36781) - http://www.bohemiancoding.com/sketch -->
    <title>pinzutu_logo</title>
    <desc>Created with Sketch.</desc>
    <defs></defs>
    <g id="Page-1" stroke="none" stroke-width="1" fill="none" fill-rule="evenodd">
        <g id="pinzutu_logo" fill="#FEFEFE">
            <g id="Page-1">
                <path d="M1.2012,20.2022 C0.8632,20.2022 0.5782,20.0852 0.3472,19.8512 C0.1162,19.6182 0.0002,19.3302 0.0002,18.9882 L0.0002,1.5382 C0.0002,1.2142 0.1172,0.9312 0.3512,0.6882 C0.5852,0.4452 0.8732,0.3242 1.2142,0.3242 L8.0652,0.3242 C8.9822,0.3242 9.8412,0.4992 10.6402,0.8502 C11.4412,1.2012 12.1382,1.6722 12.7312,2.2662 C13.3252,2.8592 13.7972,3.5602 14.1472,4.3702 C14.4982,5.1792 14.6732,6.0422 14.6732,6.9592 C14.6732,7.8762 14.4982,8.7352 14.1472,9.5352 C13.7972,10.3352 13.3252,11.0322 12.7312,11.6252 C12.1382,12.2182 11.4412,12.6902 10.6402,13.0412 C9.8412,13.3922 8.9822,13.5672 8.0652,13.5672 C7.7232,13.5672 7.4302,13.4502 7.1892,13.2172 C6.9462,12.9832 6.8242,12.6952 6.8242,12.3532 C6.8242,12.0122 6.9462,11.7242 7.1892,11.4902 C7.4302,11.2572 7.7232,11.1402 8.0652,11.1402 C8.6392,11.1402 9.1802,11.0282 9.6832,10.8022 C10.1872,10.5772 10.6282,10.2762 11.0052,9.8992 C11.3832,9.5212 11.6792,9.0812 11.8952,8.5772 C12.1112,8.0742 12.2192,7.5342 12.2192,6.9592 C12.2192,6.3842 12.1112,5.8402 11.8942,5.3272 C11.6782,4.8152 11.3802,4.3702 11.0022,3.9922 C10.6232,3.6142 10.1802,3.3182 9.6762,3.1022 C9.1722,2.8862 8.6302,2.7782 8.0542,2.7782 L2.4012,2.7782 L2.4012,18.9882 C2.4012,19.3302 2.2852,19.6182 2.0542,19.8512 C1.8232,20.0852 1.5382,20.2022 1.2012,20.2022" id="Fill-1"></path>
                <path d="M20.9844,20.2022 C20.6424,20.2022 20.3544,20.0852 20.1214,19.8512 C19.8874,19.6182 19.7704,19.3302 19.7704,18.9882 L19.7704,1.4562 C19.7704,1.1332 19.8874,0.8542 20.1214,0.6212 C20.3544,0.3872 20.6424,0.2702 20.9844,0.2702 C21.3074,0.2702 21.5864,0.3872 21.8204,0.6212 C22.0544,0.8542 22.1714,1.1332 22.1714,1.4562 L22.1714,18.9882 C22.1714,19.3302 22.0544,19.6182 21.8204,19.8512 C21.5864,20.0852 21.3074,20.2022 20.9844,20.2022" id="Fill-3"></path>
                <path d="M42.6689,20.148 C42.2739,20.148 41.9679,19.995 41.7519,19.69 L30.5049,4.909 L30.5049,18.988 C30.5049,19.312 30.3919,19.586 30.1679,19.811 C29.9429,20.036 29.6689,20.148 29.3449,20.148 C29.0389,20.148 28.7699,20.036 28.5359,19.811 C28.3019,19.586 28.1849,19.312 28.1849,18.988 L28.1849,1.484 C28.1849,1.232 28.2569,1.007 28.4009,0.809 C28.5449,0.612 28.7429,0.477 28.9949,0.405 C29.2279,0.315 29.4619,0.306 29.6959,0.378 C29.9289,0.45 30.1269,0.585 30.2889,0.782 L41.5089,15.59 L41.5089,1.484 C41.5089,1.178 41.6209,0.908 41.8459,0.674 C42.0709,0.441 42.3459,0.324 42.6689,0.324 C42.9929,0.324 43.2669,0.441 43.4919,0.674 C43.7169,0.908 43.8289,1.178 43.8289,1.484 L43.8289,18.988 C43.8289,19.24 43.7569,19.465 43.6129,19.663 C43.4689,19.861 43.2799,20.005 43.0469,20.094 C42.8669,20.13 42.7409,20.148 42.6689,20.148" id="Fill-5"></path>
                <path d="M64.4893,20.1211 L49.7903,20.1211 C49.3223,20.1211 48.9713,19.9051 48.7383,19.4731 C48.5393,19.0241 48.5843,18.6111 48.8723,18.2331 L61.6573,2.4541 L50.2753,2.4541 C49.9513,2.4541 49.6723,2.3381 49.4393,2.1041 C49.2053,1.8701 49.0883,1.5911 49.0883,1.2671 C49.0883,0.9441 49.2053,0.6701 49.4393,0.4451 C49.6723,0.2201 49.9513,0.1081 50.2753,0.1081 L64.0843,0.1081 C64.5883,0.1081 64.9383,0.3241 65.1373,0.7551 C65.3343,1.2051 65.2893,1.6181 65.0023,1.9961 L52.2173,17.7741 L64.4893,17.7741 C64.8133,17.7741 65.0923,17.8921 65.3253,18.1251 C65.5593,18.3591 65.6763,18.6371 65.6763,18.9611 C65.6763,19.2851 65.5593,19.5591 65.3253,19.7841 C65.0923,20.0091 64.8133,20.1211 64.4893,20.1211" id="Fill-7"></path>
                <path d="M78.4331,20.3638 C77.4081,20.3638 76.4421,20.1708 75.5341,19.7838 C74.6261,19.3978 73.8121,18.8538 73.0931,18.1518 C72.3911,17.4328 71.8471,16.6188 71.4611,15.7118 C71.0741,14.8038 70.8811,13.8368 70.8811,12.8118 L70.8811,1.1598 C70.8811,0.8368 70.9981,0.5618 71.2321,0.3378 C71.4651,0.1128 71.7441,-0.0002 72.0681,-0.0002 C72.3911,-0.0002 72.6651,0.1128 72.8901,0.3378 C73.1151,0.5618 73.2281,0.8368 73.2281,1.1598 L73.2281,12.8118 C73.2281,13.5308 73.3631,14.2058 73.6321,14.8348 C73.9021,15.4638 74.2751,16.0168 74.7511,16.4938 C75.2281,16.9698 75.7811,17.3428 76.4101,17.6128 C77.0401,17.8828 77.7141,18.0178 78.4331,18.0178 C79.1521,18.0178 79.8261,17.8828 80.4561,17.6128 C81.0851,17.3428 81.6341,16.9698 82.1011,16.4938 C82.5691,16.0168 82.9371,15.4638 83.2071,14.8348 C83.4771,14.2058 83.6121,13.5308 83.6121,12.8118 L83.6121,2.4278 L83.6121,2.3738 C83.6291,2.3378 83.6431,2.2388 83.6521,2.0768 C83.6611,1.9158 83.6931,1.7358 83.7471,1.5378 C83.8361,1.2138 83.9621,0.9578 84.1241,0.7688 C84.2861,0.5798 84.4481,0.4368 84.6101,0.3378 C84.7711,0.2388 84.9241,0.1798 85.0681,0.1618 C85.2121,0.1448 85.3201,0.1348 85.3921,0.1348 C85.7161,0.1348 85.9891,0.2478 86.2141,0.4728 C86.4391,0.6968 86.5521,0.9708 86.5521,1.2948 C86.5521,1.7628 86.3631,2.0948 85.9851,2.2928 C85.9851,2.3828 85.9761,2.4368 85.9581,2.4548 L85.9581,12.8118 C85.9581,13.8368 85.7691,14.8038 85.3921,15.7118 C85.0141,16.6188 84.4751,17.4328 83.7731,18.1518 C83.0541,18.8538 82.2401,19.3978 81.3321,19.7838 C80.4241,20.1708 79.4581,20.3638 78.4331,20.3638" id="Fill-9"></path>
                <path d="M105.1616,0.3238 C105.5026,0.3238 105.7866,0.4368 106.0116,0.6608 C106.2356,0.8858 106.3486,1.1688 106.3486,1.5108 C106.3486,1.8338 106.2356,2.1128 106.0116,2.3468 C105.7866,2.5808 105.5026,2.6978 105.1616,2.6978 L99.3626,2.6978 L99.3626,18.8798 C99.3626,19.2228 99.2486,19.5058 99.0216,19.7298 C98.7946,19.9548 98.5076,20.0668 98.1626,20.0668 C97.8356,20.0668 97.5526,19.9548 97.3166,19.7298 C97.0796,19.5058 96.9626,19.2228 96.9626,18.8798 L96.9626,2.6978 L91.1636,2.6978 C90.8396,2.6978 90.5606,2.5808 90.3276,2.3468 C90.0936,2.1128 89.9766,1.8338 89.9766,1.5108 C89.9766,1.1688 90.0936,0.8858 90.3276,0.6608 C90.5606,0.4368 90.8396,0.3238 91.1636,0.3238 L105.1616,0.3238 Z" id="Fill-11"></path>
                <path d="M117.4336,20.3638 C116.4086,20.3638 115.4426,20.1708 114.5346,19.7838 C113.6266,19.3978 112.8126,18.8538 112.0936,18.1518 C111.3916,17.4328 110.8476,16.6188 110.4616,15.7118 C110.0746,14.8038 109.8816,13.8368 109.8816,12.8118 L109.8816,1.1598 C109.8816,0.8368 109.9986,0.5618 110.2326,0.3378 C110.4656,0.1128 110.7446,-0.0002 111.0686,-0.0002 C111.3916,-0.0002 111.6656,0.1128 111.8916,0.3378 C112.1156,0.5618 112.2286,0.8368 112.2286,1.1598 L112.2286,12.8118 C112.2286,13.5308 112.3636,14.2058 112.6326,14.8348 C112.9026,15.4638 113.2756,16.0168 113.7516,16.4938 C114.2286,16.9698 114.7816,17.3428 115.4106,17.6128 C116.0406,17.8828 116.7146,18.0178 117.4336,18.0178 C118.1526,18.0178 118.8266,17.8828 119.4566,17.6128 C120.0856,17.3428 120.6346,16.9698 121.1016,16.4938 C121.5696,16.0168 121.9386,15.4638 122.2076,14.8348 C122.4776,14.2058 122.6126,13.5308 122.6126,12.8118 L122.6126,2.4278 L122.6126,2.3738 C122.6296,2.3378 122.6436,2.2388 122.6526,2.0768 C122.6616,1.9158 122.6936,1.7358 122.7476,1.5378 C122.8366,1.2138 122.9626,0.9578 123.1246,0.7688 C123.2866,0.5798 123.4486,0.4368 123.6106,0.3378 C123.7716,0.2388 123.9246,0.1798 124.0686,0.1618 C124.2126,0.1448 124.3206,0.1348 124.3926,0.1348 C124.7166,0.1348 124.9896,0.2478 125.2146,0.4728 C125.4396,0.6968 125.5526,0.9708 125.5526,1.2948 C125.5526,1.7628 125.3636,2.0948 124.9856,2.2928 C124.9856,2.3828 124.9766,2.4368 124.9586,2.4548 L124.9586,12.8118 C124.9586,13.8368 124.7696,14.8038 124.3926,15.7118 C124.0146,16.6188 123.4756,17.4328 122.7736,18.1518 C122.0546,18.8538 121.2406,19.3978 120.3326,19.7838 C119.4246,20.1708 118.4586,20.3638 117.4336,20.3638" id="Fill-13"></path>
            </g>
        </g>
    </g>
</svg>